# grid   : Signal grid with direct pair-production of scalar tau leptons (staus). 13 TeV.
# author : mann@cern.ch (please report any problems to this address)
# date   : 03.04.2017
#
# Cross sections taken from https://twiki.cern.ch/twiki/bin/view/LHCPhysics/SUSYCrossSections13TeVslepslep (recomputed)
# Filter efficiencies from AMI
# REL.UNCERT (relative uncertainty) given as fraction of xsec
# Last column gives mass parameters
#
#SAMPLE     FS   CROSSECTION[pb]     K-FACTOR     FILTEREFF   REL.UNCERT
393600     206         0.597622        1.00       0.515480      0.035043  # (80.0, 1.0)
393600     207         0.211387        1.00       0.515480      0.040516  # (80.0, 1.0)
393601     206         0.597622        1.00       0.498950      0.035043  # (80.0, 20.0)
393601     207         0.211387        1.00       0.498950      0.040516  # (80.0, 20.0)
393602     206         0.597622        1.00       0.431970      0.035043  # (80.0, 40.0)
393602     207         0.211387        1.00       0.431970      0.040516  # (80.0, 40.0)
393603     206         0.597622        1.00       0.259100      0.035043  # (80.0, 60.0)
393603     207         0.211387        1.00       0.259100      0.040516  # (80.0, 60.0)
393604     206         0.269345        1.00       0.590690      0.035045  # (100.0, 1.0)
393604     207         0.097780        1.00       0.590690      0.040535  # (100.0, 1.0)
393605     206         0.269345        1.00       0.585890      0.035045  # (100.0, 20.0)
393605     207         0.097780        1.00       0.585890      0.040535  # (100.0, 20.0)
393606     206         0.269345        1.00       0.550520      0.035045  # (100.0, 40.0)
393606     207         0.097780        1.00       0.550520      0.040535  # (100.0, 40.0)
393607     206         0.269345        1.00       0.470210      0.035045  # (100.0, 60.0)
393607     207         0.097780        1.00       0.470210      0.040535  # (100.0, 60.0)
393608     206         0.269345        1.00       0.280550      0.035045  # (100.0, 80.0)
393608     207         0.097780        1.00       0.280550      0.040535  # (100.0, 80.0)
393609     206         0.140621        1.00       0.650180      0.035995  # (120.0, 1.0)
393609     207         0.051904        1.00       0.650180      0.042179  # (120.0, 1.0)
393610     206         0.140621        1.00       0.649160      0.035995  # (120.0, 20.0)
393610     207         0.051904        1.00       0.649160      0.042179  # (120.0, 20.0)
393611     206         0.140621        1.00       0.631110      0.035995  # (120.0, 40.0)
393611     207         0.051904        1.00       0.631110      0.042179  # (120.0, 40.0)
393612     206         0.140621        1.00       0.584790      0.035995  # (120.0, 60.0)
393612     207         0.051904        1.00       0.584790      0.042179  # (120.0, 60.0)
393613     206         0.140621        1.00       0.500180      0.035995  # (120.0, 80.0)
393613     207         0.051904        1.00       0.500180      0.042179  # (120.0, 80.0)
393614     206         0.140621        1.00       0.291760      0.035995  # (120.0, 100.0)
393614     207         0.051904        1.00       0.291760      0.042179  # (120.0, 100.0)
393615     206         0.080792        1.00       0.700010      0.038257  # (140.0, 1.0)
393615     207         0.030160        1.00       0.700010      0.043880  # (140.0, 1.0)
393616     206         0.080792        1.00       0.693320      0.038257  # (140.0, 20.0)
393616     207         0.030160        1.00       0.693320      0.043880  # (140.0, 20.0)
393617     206         0.080792        1.00       0.688530      0.038257  # (140.0, 40.0)
393617     207         0.030160        1.00       0.688530      0.043880  # (140.0, 40.0)
393618     206         0.080792        1.00       0.656790      0.038257  # (140.0, 60.0)
393618     207         0.030160        1.00       0.656790      0.043880  # (140.0, 60.0)
393619     206         0.080792        1.00       0.615290      0.038257  # (140.0, 80.0)
393619     207         0.030160        1.00       0.615290      0.043880  # (140.0, 80.0)
393620     206         0.080792        1.00       0.520530      0.038257  # (140.0, 100.0)
393620     207         0.030160        1.00       0.520530      0.043880  # (140.0, 100.0)
393621     206         0.080792        1.00       0.296700      0.038257  # (140.0, 120.0)
393621     207         0.030160        1.00       0.296700      0.043880  # (140.0, 120.0)
393622     206         0.049677        1.00       0.734900      0.040351  # (160.0, 1.0)
393622     207         0.018698        1.00       0.734900      0.045608  # (160.0, 1.0)
393623     206         0.049677        1.00       0.731940      0.040351  # (160.0, 20.0)
393623     207         0.018698        1.00       0.731940      0.045608  # (160.0, 20.0)
393624     206         0.049677        1.00       0.722100      0.040351  # (160.0, 40.0)
393624     207         0.018698        1.00       0.722100      0.045608  # (160.0, 40.0)
393625     206         0.049677        1.00       0.711040      0.040351  # (160.0, 60.0)
393625     207         0.018698        1.00       0.711040      0.045608  # (160.0, 60.0)
393626     206         0.049677        1.00       0.682030      0.040351  # (160.0, 80.0)
393626     207         0.018698        1.00       0.682030      0.045608  # (160.0, 80.0)
393627     206         0.049677        1.00       0.631100      0.040351  # (160.0, 100.0)
393627     207         0.018698        1.00       0.631100      0.045608  # (160.0, 100.0)
393628     206         0.049677        1.00       0.535050      0.040351  # (160.0, 120.0)
393628     207         0.018698        1.00       0.535050      0.045608  # (160.0, 120.0)
393629     206         0.049677        1.00       0.303360      0.040351  # (160.0, 140.0)
393629     207         0.018698        1.00       0.303360      0.045608  # (160.0, 140.0)
393630     206         0.032145        1.00       0.763040      0.042430  # (180.0, 1.0)
393630     207         0.012177        1.00       0.763040      0.047456  # (180.0, 1.0)
393631     206         0.032145        1.00       0.761520      0.042430  # (180.0, 20.0)
393631     207         0.012177        1.00       0.761520      0.047456  # (180.0, 20.0)
393632     206         0.032145        1.00       0.756920      0.042430  # (180.0, 40.0)
393632     207         0.012177        1.00       0.756920      0.047456  # (180.0, 40.0)
393633     206         0.032145        1.00       0.744690      0.042430  # (180.0, 60.0)
393633     207         0.012177        1.00       0.744690      0.047456  # (180.0, 60.0)
393634     206         0.032145        1.00       0.728110      0.042430  # (180.0, 80.0)
393634     207         0.012177        1.00       0.728110      0.047456  # (180.0, 80.0)
393635     206         0.021653        1.00       0.788590      0.044677  # (200.0, 1.0)
393635     207         0.008243        1.00       0.788590      0.049500  # (200.0, 1.0)
393636     206         0.021653        1.00       0.786300      0.044677  # (200.0, 20.0)
393636     207         0.008243        1.00       0.786300      0.049500  # (200.0, 20.0)
393637     206         0.021653        1.00       0.785440      0.044677  # (200.0, 40.0)
393637     207         0.008243        1.00       0.785440      0.049500  # (200.0, 40.0)
393638     206         0.021653        1.00       0.774790      0.044677  # (200.0, 60.0)
393638     207         0.008243        1.00       0.774790      0.049500  # (200.0, 60.0)
393639     206         0.015056        1.00       0.808540      0.046877  # (220.0, 1.0)
393639     207         0.005755        1.00       0.808540      0.051772  # (220.0, 1.0)
393640     206         0.015056        1.00       0.805820      0.046877  # (220.0, 20.0)
393640     207         0.005755        1.00       0.805820      0.051772  # (220.0, 20.0)
393641     206         0.015056        1.00       0.805950      0.046877  # (220.0, 40.0)
393641     207         0.005755        1.00       0.805950      0.051772  # (220.0, 40.0)
393642     206         0.010745        1.00       0.822990      0.049585  # (240.0, 1.0)
393642     207         0.004121        1.00       0.822990      0.053583  # (240.0, 1.0)
393643     206         0.007838        1.00       0.837550      0.051399  # (260.0, 1.0)
393643     207         0.003015        1.00       0.837550      0.055062  # (260.0, 1.0)
393644     206         0.005827        1.00       0.852110      0.053917  # (280.0, 1.0)
393644     207         0.002246        1.00       0.852110      0.056098  # (280.0, 1.0)
396102     206         0.140621        1.00       0.502830      0.035995  # (120.0, 1.0)
396102     207         0.051904        1.00       0.502830      0.042179  # (120.0, 1.0)
396103     206         0.049677        1.00       0.606170      0.040351  # (160.0, 1.0)
396103     207         0.018698        1.00       0.606170      0.045608  # (160.0, 1.0)
396104     206         0.021653        1.00       0.676090      0.044677  # (200.0, 1.0)
396104     207         0.008243        1.00       0.676090      0.049500  # (200.0, 1.0)
396105     206         0.010745        1.00       0.726310      0.049585  # (240.0, 1.0)
396105     207         0.004121        1.00       0.726310      0.053583  # (240.0, 1.0)
396106     206         0.005827        1.00       0.762790      0.053917  # (280.0, 1.0)
396106     207         0.002246        1.00       0.762790      0.056098  # (280.0, 1.0)
396107     206         0.140621        1.00       0.467330      0.035995  # (120.0, 40.0)
396107     207         0.051904        1.00       0.467330      0.042179  # (120.0, 40.0)
396108     206         0.049677        1.00       0.589100      0.040351  # (160.0, 40.0)
396108     207         0.018698        1.00       0.589100      0.045608  # (160.0, 40.0)
396109     206         0.021653        1.00       0.667160      0.044677  # (200.0, 40.0)
396109     207         0.008243        1.00       0.667160      0.049500  # (200.0, 40.0)
396110     206         0.010745        1.00       0.719910      0.049585  # (240.0, 40.0)
396110     207         0.004121        1.00       0.719910      0.053583  # (240.0, 40.0)
396111     206         0.005827        1.00       0.758790      0.053917  # (280.0, 40.0)
396111     207         0.002246        1.00       0.758790      0.056098  # (280.0, 40.0)
396112     206         0.049677        1.00       0.523750      0.040351  # (160.0, 80.0)
396112     207         0.018698        1.00       0.523750      0.045608  # (160.0, 80.0)
396113     206         0.010745        1.00       0.703350      0.049585  # (240.0, 80.0)
396113     207         0.004121        1.00       0.703350      0.053583  # (240.0, 80.0)
396114     206         0.597622        1.00       0.347730      0.035043  # (80.0, 1.0)
396114     207         0.211387        1.00       0.347730      0.040516  # (80.0, 1.0)
#
#397012     206         0.010745        1.00       0.664070      0.049585  # (240.0, 120.0)
#397012     207         0.004121        1.00       0.664070      0.053583  # (240.0, 120.0)
#397014     206         0.005827        1.00       0.744690      0.053917  # (280.0, 80.0)
#397014     207         0.002246        1.00       0.744690      0.056098  # (280.0, 80.0)
#397015     206         0.005827        1.00       0.720330      0.053917  # (280.0, 120.0)
#397015     207         0.002246        1.00       0.720330      0.056098  # (280.0, 120.0)
#397019     206         0.003371        1.00       0.785550      0.056736  # (320.0, 80.0)
#397019     207         0.001306        1.00       0.785550      0.059540  # (320.0, 80.0)
#397020     206         0.003371        1.00       0.769510      0.056736  # (320.0, 120.0)
#397020     207         0.001306        1.00       0.769510      0.059540  # (320.0, 120.0)
#397036     206         0.002615        1.00       0.804280      0.058714  # (340.0, 40.0)
#397036     207         0.001015        1.00       0.804280      0.061355  # (340.0, 40.0)
#397037     206         0.002615        1.00       0.809920      0.058714  # (340.0, 1.0)
#397037     207         0.001015        1.00       0.809920      0.061355  # (340.0, 1.0)
#
#
#dataset_number  subprocessID  crossSection_pb [pb]  kFactor  genFiltEff  crossSectionTotalRelUncertUP 

397010          206             0.021653              1.0      6.3523E-01  0.0               #(200p0_80p0 )
397010          207             0.008243              1.0      6.3523E-01  0.0               #(200p0_80p0 )
397011          206             0.021653              1.0      5.5955E-01  0.0               #(200p0_120p0)
397011          207             0.008243              1.0      5.5955E-01  0.0               #(200p0_120p0)
397012          206             0.010745              1.00       0.664070  0.049585          #(240p0_120p0)
397012          207             0.004121              1.00       0.664070  0.053583          #(240p0_120p0)
397013          206             0.010745              1.0      5.8449E-01  0.0               #(240p0_160p0)
397013          207             0.004121              1.0      5.8449E-01  0.0               #(240p0_160p0)
397014          206             0.005827              1.00       0.744690  0.053917          #(280p0_80p0 )
397014          207             0.002246              1.00       0.744690  0.056098          #(280p0_80p0 )
397015          206             0.005827              1.00       0.720330  0.053917          #(280p0_120p0)
397015          207             0.002246              1.00       0.720330  0.056098          #(280p0_120p0)
397016          206             0.005827              1.0      6.8068E-01  0.0               #(280p0_160p0)
397016          207             0.002246              1.0      6.8068E-01  0.0               #(280p0_160p0)
397017          206             0.003371              1.0      7.8821E-01  0.0               #(320p0_1p0 )
397017          207             0.001306              1.0      7.8821E-01  0.0               #(320p0_1p0 )
397018          206             0.003371              1.0      7.8871E-01  0.0               #(320p0_40p0)
397018          207             0.001306              1.0      7.8871E-01  0.0               #(320p0_40p0)
397019          206             0.003371              1.00       0.785550  0.056736          #(320p0_80p0 )
397019          207             0.001306              1.00       0.785550  0.059540          #(320p0_80p0 )
397020          206             0.003371              1.00       0.769510  0.056736          #(320p0_120p0)
397020          207             0.001306              1.00       0.769510  0.059540          #(320p0_120p0)
397021          206             0.003371              1.0      7.4551E-01  0.0               #(320p0_160p0)
397021          207             0.001306              1.0      7.4551E-01  0.0               #(320p0_160p0)
397022          206             0.0020507169          1.0      8.1106E-01  0.0               #(360p0_1p0  )
397022          207             0.00079748031         1.0      8.1106E-01  0.0               #(360p0_1p0  )
397023          206             0.0020507169          1.0      8.0611E-01  0.0               #(360p0_40p0 )
397023          207             0.00079748031         1.0      8.0611E-01  0.0               #(360p0_40p0 )
397024          206             0.0020507169          1.0      8.0534E-01  0.0               #(360p0_80p0 )
397024          207             0.00079748031         1.0      8.0534E-01  0.0               #(360p0_80p0 )
397025          206             0.0020507169          1.0      7.9755E-01  0.0               #(360p0_120p0)
397025          207             0.00079748031         1.0      7.9755E-01  0.0               #(360p0_120p0)
397026          206             0.0012965578          1.0      8.3245E-01  0.0               #(400p0_1p0  )
397026          207             0.00050590686         1.0      8.3245E-01  0.0               #(400p0_1p0  )
397027          206             0.0012965578          1.0      8.2575E-01  0.0               #(400p0_80p0 )
397027          207             0.00050590686         1.0      8.2575E-01  0.0               #(400p0_80p0 )
397028          206             0.0012965578          1.0      8.1424E-01  0.0               #(400p0_160p0)
397028          207             0.00050590686         1.0      8.1424E-01  0.0               #(400p0_160p0)
397029          206             0.00084608913         1.0      8.4768E-01  0.0               #(440p0_40p0 )
397029          207             0.00033100266         1.0      8.4768E-01  0.0               #(440p0_40p0 )
397030          206             0.00084608913         1.0      8.4080E-01  0.0               #(440p0_1p0  )
397030          207             0.00033100266         1.0      8.4080E-01  0.0               #(440p0_1p0  )
397031          206             0.0012965578          1.0      8.2232E-01  0.0               #(400p0_120p0)
397031          207             0.00050590686         1.0      8.2232E-01  0.0               #(400p0_120p0)
397032          206             0.0012965578          1.0      8.3346E-01  0.0               #(400p0_40p0 )
397032          207             0.00050590686         1.0      8.3346E-01  0.0               #(400p0_40p0 )
397033          206             0.0020507169          1.0      7.4740E-01  0.0               #(360p0_200p0)
397033          207             0.00079748031         1.0      7.4740E-01  0.0               #(360p0_200p0)
397034          206             0.0020507169          1.0      7.9486E-01  0.0               #(360p0_160p0)
397034          207             0.00079748031         1.0      7.9486E-01  0.0               #(360p0_160p0)
397035          206             0.00063238786859      1.0      8.2105E-01  0.0               #(380p0_1p0  )
397035          207             0.00063238786         1.0      8.2105E-01  0.0               #(380p0_1p0  )
397036          206             0.002615              1.00       0.804280  0.058714          #(340p0_40p0 )
397036          207             0.001015              1.00       0.804280  0.061355          #(340p0_40p0 )
397037          206             0.002615              1.00       0.809920  0.058714          #(340p0_1p0  )
397037          207             0.001015              1.00       0.809920  0.061355          #(340p0_1p0  )
397038          206             0.003371              1.0      7.0231E-01  0.0               #(320p0_200p0)
397038          207             0.001306              1.0      7.0231E-01  0.0               #(320p0_200p0)
397039          206             0.0043989349          1.0      7.7457E-01  0.0               #(300p0_40p0 )
397039          207             0.0017013072          1.0      7.7457E-01  0.0               #(300p0_40p0 )
397040          206             0.0043989349          1.0      7.7615E-01  0.0               #(300p0_1p0  )
397040          207             0.0017013072          1.0      7.7615E-01  0.0               #(300p0_1p0  )
397041          206             0.0078379975          1.0      7.4144E-01  0.0               #(260p0_40p0 )
397041          207             0.0030153182          1.0      7.4144E-01  0.0               #(260p0_40p0 )
397042          206             0.0078379975          1.0      7.4276E-01  0.0               #(260p0_1p0  )
397042          207             0.0030153182          1.0      7.4276E-01  0.0               #(260p0_1p0  )
397043          206             0.015055912           1.0      6.9747E-01  0.0               #(220p0_40p0 )
397043          207             0.0057547453          1.0      6.9747E-01  0.0               #(220p0_40p0 )
397044          206             0.015055912           1.0      7.0439E-01  0.0               #(220p0_1p0  )
397044          207             0.0057547453          1.0      7.0439E-01  0.0               #(220p0_1p0  )
397045          206             0.032145432           1.0      6.3187E-01  0.0               #(180p0_40p0 )
397045          207             0.012176898           1.0      6.3187E-01  0.0               #(180p0_40p0 )
397046          206             0.032145432           1.0      6.4533E-01  0.0               #(180p0_1p0  )
397046          207             0.012176898           1.0      6.4533E-01  0.0               #(180p0_1p0  )
397047          206             0.08079202            1.0      5.3552E-01  0.0               #(140p0_40p0)
397047          207             0.030159719           1.0      5.3552E-01  0.0               #(140p0_40p0)
397048          206             0.08079202            1.0      5.6026E-01  0.0               #(140p0_1p0  )
397048          207             0.030159719           1.0      5.6026E-01  0.0               #(140p0_1p0  )
397049          206             0.26934503            1.0      4.3295E-01  0.0               #(100p0_1p0  )
397049          207             0.097779977           1.0      4.3295E-01  0.0               #(100p0_1p0  )