### 402200.MGPy8EG_A14N_C1C1_500_10_LLE12k
402200   157   0.0221265000   1.  1.  0.0880862314 
### 402201.MGPy8EG_A14N_C1C1_500_50_LLE12k
402201   157   0.0221265000   1.  1.  0.0880862314 
### 402202.MGPy8EG_A14N_C1C1_500_200_LLE12k
402202   157   0.0221265000   1.  1.  0.0880862314 
### 402203.MGPy8EG_A14N_C1C1_500_400_LLE12k
402203   157   0.0221265000   1.  1.  0.0880862314 
### 402204.MGPy8EG_A14N_C1C1_500_490_LLE12k
402204   157   0.0221265000   1.  1.  0.0880862314 
### 402205.MGPy8EG_A14N_C1C1_700_10_LLE12k
402205   157   0.0044387000   1.  1.  0.1029857841 
### 402206.MGPy8EG_A14N_C1C1_700_50_LLE12k
402206   157   0.0044387000   1.  1.  0.1029857841 
### 402207.MGPy8EG_A14N_C1C1_700_200_LLE12k
402207   157   0.0044387000   1.  1.  0.1029857841 
### 402208.MGPy8EG_A14N_C1C1_700_400_LLE12k
402208   157   0.0044387000   1.  1.  0.1029857841 
### 402209.MGPy8EG_A14N_C1C1_700_600_LLE12k
402209   157   0.0044387000   1.  1.  0.1029857841 
### 402210.MGPy8EG_A14N_C1C1_700_690_LLE12k
402210   157   0.0044387000   1.  1.  0.1029857841 
### 402211.MGPy8EG_A14N_C1C1_800_10_LLE12k
402211   157   0.0022119700   1.  1.  0.1108496047 
### 402212.MGPy8EG_A14N_C1C1_800_50_LLE12k
402212   157   0.0022119700   1.  1.  0.1108496047 
### 402213.MGPy8EG_A14N_C1C1_800_200_LLE12k
402213   157   0.0022119700   1.  1.  0.1108496047 
### 402214.MGPy8EG_A14N_C1C1_800_400_LLE12k
402214   157   0.0022119700   1.  1.  0.1108496047 
### 402215.MGPy8EG_A14N_C1C1_800_600_LLE12k
402215   157   0.0022119700   1.  1.  0.1108496047 
### 402216.MGPy8EG_A14N_C1C1_800_790_LLE12k
402216   157   0.0022119700   1.  1.  0.1108496047 
### 402217.MGPy8EG_A14N_C1C1_900_10_LLE12k
402217   157   0.0011530100   1.  1.  0.1177977641 
### 402218.MGPy8EG_A14N_C1C1_900_50_LLE12k
402218   157   0.0011530100   1.  1.  0.1177977641 
### 402219.MGPy8EG_A14N_C1C1_900_200_LLE12k
402219   157   0.0011530100   1.  1.  0.1177977641 
### 402220.MGPy8EG_A14N_C1C1_900_400_LLE12k
402220   157   0.0011530100   1.  1.  0.1177977641 
### 402221.MGPy8EG_A14N_C1C1_900_600_LLE12k
402221   157   0.0011530100   1.  1.  0.1177977641 
### 402222.MGPy8EG_A14N_C1C1_900_800_LLE12k
402222   157   0.0011530100   1.  1.  0.1177977641 
### 402223.MGPy8EG_A14N_C1C1_900_890_LLE12k
402223   157   0.0011530100   1.  1.  0.1177977641 
### 402224.MGPy8EG_A14N_C1C1_1000_10_LLE12k
402224   157   0.0006218660   1.  1.  0.1239824978 
### 402225.MGPy8EG_A14N_C1C1_1000_50_LLE12k
402225   157   0.0006218660   1.  1.  0.1239824978 
### 402226.MGPy8EG_A14N_C1C1_1000_200_LLE12k
402226   157   0.0006218660   1.  1.  0.1239824978 
### 402227.MGPy8EG_A14N_C1C1_1000_400_LLE12k
402227   157   0.0006218660   1.  1.  0.1239824978 
### 402228.MGPy8EG_A14N_C1C1_1000_600_LLE12k
402228   157   0.0006218660   1.  1.  0.1239824978 
### 402229.MGPy8EG_A14N_C1C1_1000_800_LLE12k
402229   157   0.0006218660   1.  1.  0.1239824978 
### 402230.MGPy8EG_A14N_C1C1_1000_990_LLE12k
402230   157   0.0006218660   1.  1.  0.1239824978 
### 402231.MGPy8EG_A14N_C1C1_1100_10_LLE12k
402231   157   0.0003426260   1.  1.  0.1248218174 
### 402232.MGPy8EG_A14N_C1C1_1100_50_LLE12k
402232   157   0.0003426260   1.  1.  0.1248218174 
### 402233.MGPy8EG_A14N_C1C1_1100_200_LLE12k
402233   157   0.0003426260   1.  1.  0.1248218174 
### 402234.MGPy8EG_A14N_C1C1_1100_400_LLE12k
402234   157   0.0003426260   1.  1.  0.1248218174 
### 402235.MGPy8EG_A14N_C1C1_1100_600_LLE12k
402235   157   0.0003426260   1.  1.  0.1248218174 
### 402236.MGPy8EG_A14N_C1C1_1100_800_LLE12k
402236   157   0.0003426260   1.  1.  0.1248218174 
### 402237.MGPy8EG_A14N_C1C1_1100_1000_LLE12k
402237   157   0.0003426260   1.  1.  0.1248218174 
### 402238.MGPy8EG_A14N_C1C1_1100_1090_LLE12k
402238   157   0.0003426260   1.  1.  0.1248218174 
### 402239.MGPy8EG_A14N_C1C1_1200_10_LLE12k
402239   157   0.0001960440   1.  1.  0.1347325090 
### 402240.MGPy8EG_A14N_C1C1_1200_50_LLE12k
402240   157   0.0001960440   1.  1.  0.1347325090 
### 402241.MGPy8EG_A14N_C1C1_1200_200_LLE12k
402241   157   0.0001960440   1.  1.  0.1347325090 
### 402242.MGPy8EG_A14N_C1C1_1200_400_LLE12k
402242   157   0.0001960440   1.  1.  0.1347325090 
### 402243.MGPy8EG_A14N_C1C1_1200_600_LLE12k
402243   157   0.0001960440   1.  1.  0.1347325090 
### 402244.MGPy8EG_A14N_C1C1_1200_800_LLE12k
402244   157   0.0001960440   1.  1.  0.1347325090 
### 402245.MGPy8EG_A14N_C1C1_1200_1000_LLE12k
402245   157   0.0001960440   1.  1.  0.1347325090 
### 402246.MGPy8EG_A14N_C1C1_1200_1190_LLE12k
402246   157   0.0001960440   1.  1.  0.1347325090 
### 402247.MGPy8EG_A14N23LO_C1C1_1300_10_LLE12k
402247   157   0.0001156450   1.  1.  0.1621860003 
### 402248.MGPy8EG_A14N23LO_C1C1_1300_50_LLE12k
402248   157   0.0001156450   1.  1.  0.1621860003 
### 402249.MGPy8EG_A14N23LO_C1C1_1300_200_LLE12k
402249   157   0.0001156450   1.  1.  0.1621860003 
### 402250.MGPy8EG_A14N23LO_C1C1_1300_400_LLE12k
402250   157   0.0001156450   1.  1.  0.1621860003 
### 402251.MGPy8EG_A14N23LO_C1C1_1300_600_LLE12k
402251   157   0.0001156450   1.  1.  0.1621860003 
### 402252.MGPy8EG_A14N23LO_C1C1_1300_800_LLE12k
402252   157   0.0001156450   1.  1.  0.1621860003 
### 402253.MGPy8EG_A14N23LO_C1C1_1300_1000_LLE12k
402253   157   0.0001156450   1.  1.  0.1621860003 
### 402254.MGPy8EG_A14N23LO_C1C1_1300_1200_LLE12k
402254   157   0.0001156450   1.  1.  0.1621860003 
### 402255.MGPy8EG_A14N23LO_C1C1_1300_1290_LLE12k
402255   157   0.0001156450   1.  1.  0.1621860003 
### 402256.MGPy8EG_A14N23LO_C1C1_1400_10_LLE12k
402256   157   0.0000686671   1.  1.  0.1667144819 
### 402257.MGPy8EG_A14N23LO_C1C1_1400_50_LLE12k
402257   157   0.0000686671   1.  1.  0.1667144819 
### 402258.MGPy8EG_A14N23LO_C1C1_1400_200_LLE12k
402258   157   0.0000686671   1.  1.  0.1667144819 
### 402259.MGPy8EG_A14N23LO_C1C1_1400_400_LLE12k
402259   157   0.0000686671   1.  1.  0.1667144819 
### 402260.MGPy8EG_A14N23LO_C1C1_1400_600_LLE12k
402260   157   0.0000686671   1.  1.  0.1667144819 
### 402261.MGPy8EG_A14N23LO_C1C1_1400_800_LLE12k
402261   157   0.0000686671   1.  1.  0.1667144819 
### 402262.MGPy8EG_A14N23LO_C1C1_1400_1000_LLE12k
402262   157   0.0000686671   1.  1.  0.1667144819 
### 402263.MGPy8EG_A14N23LO_C1C1_1400_1200_LLE12k
402263   157   0.0000686671   1.  1.  0.1667144819 
### 402264.MGPy8EG_A14N23LO_C1C1_1400_1390_LLE12k
402264   157   0.0000686671   1.  1.  0.1667144819 
### 402265.MGPy8EG_A14N23LO_C1C1_1500_10_LLE12k
402265   157   0.0000396228   1.  1.  0.1583217239 
### 402266.MGPy8EG_A14N23LO_C1C1_1500_50_LLE12k
402266   157   0.0000396228   1.  1.  0.1583217239 
### 402267.MGPy8EG_A14N23LO_C1C1_1500_200_LLE12k
402267   157   0.0000396228   1.  1.  0.1583217239 
### 402268.MGPy8EG_A14N23LO_C1C1_1500_400_LLE12k
402268   157   0.0000396228   1.  1.  0.1583217239 
### 402269.MGPy8EG_A14N23LO_C1C1_1500_600_LLE12k
402269   157   0.0000396228   1.  1.  0.1583217239 
### 402270.MGPy8EG_A14N23LO_C1C1_1500_800_LLE12k
402270   157   0.0000396228   1.  1.  0.1583217239 
### 402271.MGPy8EG_A14N23LO_C1C1_1500_1000_LLE12k
402271   157   0.0000396228   1.  1.  0.1583217239 
### 402272.MGPy8EG_A14N23LO_C1C1_1500_1200_LLE12k
402272   157   0.0000396228   1.  1.  0.1583217239 
### 402273.MGPy8EG_A14N23LO_C1C1_1500_1400_LLE12k
402273   157   0.0000396228   1.  1.  0.1583217239 
### 402274.MGPy8EG_A14N23LO_C1C1_1500_1490_LLE12k
402274   157   0.0000396228   1.  1.  0.1583217239 
### 402275.MGPy8EG_A14N_C1C1_200_10_LLEi33
402275   157   0.9025690000   1.  1.  0.0595423729 
### 402276.MGPy8EG_A14N_C1C1_200_50_LLEi33
402276   157   0.9025690000   1.  1.  0.0595423729 
### 402277.MGPy8EG_A14N_C1C1_200_100_LLEi33
402277   157   0.9025690000   1.  1.  0.0595423729 
### 402278.MGPy8EG_A14N_C1C1_200_190_LLEi33
402278   157   0.9025690000   1.  1.  0.0595423729 
### 402279.MGPy8EG_A14N_C1C1_300_10_LLEi33
402279   157   0.1901590000   1.  1.  0.0706976793 
### 402280.MGPy8EG_A14N_C1C1_300_50_LLEi33
402280   157   0.1901590000   1.  1.  0.0706976793 
### 402281.MGPy8EG_A14N_C1C1_300_100_LLEi33
402281   157   0.1901590000   1.  1.  0.0706976793 
### 402282.MGPy8EG_A14N_C1C1_300_200_LLEi33
402282   157   0.1901590000   1.  1.  0.0706976793 
### 402283.MGPy8EG_A14N_C1C1_300_290_LLEi33
402283   157   0.1901590000   1.  1.  0.0706976793 
### 402284.MGPy8EG_A14N_C1C1_400_10_LLEi33
402284   157   0.0586311000   1.  1.  0.0806329746 
### 402285.MGPy8EG_A14N_C1C1_400_50_LLEi33
402285   157   0.0586311000   1.  1.  0.0806329746 
### 402286.MGPy8EG_A14N_C1C1_400_100_LLEi33
402286   157   0.0586311000   1.  1.  0.0806329746 
### 402287.MGPy8EG_A14N_C1C1_400_200_LLEi33
402287   157   0.0586311000   1.  1.  0.0806329746 
### 402288.MGPy8EG_A14N_C1C1_400_300_LLEi33
402288   157   0.0586311000   1.  1.  0.0806329746 
### 402289.MGPy8EG_A14N_C1C1_400_390_LLEi33
402289   157   0.0586311000   1.  1.  0.0806329746 
### 402290.MGPy8EG_A14N_C1C1_500_10_LLEi33
402290   157   0.0221265000   1.  1.  0.0880862314 
### 402291.MGPy8EG_A14N_C1C1_500_50_LLEi33
402291   157   0.0221265000   1.  1.  0.0880862314 
### 402292.MGPy8EG_A14N_C1C1_500_100_LLEi33
402292   157   0.0221265000   1.  1.  0.0880862314 
### 402293.MGPy8EG_A14N_C1C1_500_200_LLEi33
402293   157   0.0221265000   1.  1.  0.0880862314 
### 402294.MGPy8EG_A14N_C1C1_500_300_LLEi33
402294   157   0.0221265000   1.  1.  0.0880862314 
### 402295.MGPy8EG_A14N_C1C1_500_400_LLEi33
402295   157   0.0221265000   1.  1.  0.0880862314 
### 402296.MGPy8EG_A14N_C1C1_500_490_LLEi33
402296   157   0.0221265000   1.  1.  0.0880862314 
### 402297.MGPy8EG_A14N23LO_C1C1_600_10_LLEi33
402297   157   0.0094991300   1.  1.  0.0960429008 
### 402298.MGPy8EG_A14N23LO_C1C1_600_50_LLEi33
402298   157   0.0094991300   1.  1.  0.0960429008 
### 402299.MGPy8EG_A14N_C1C1_600_100_LLEi33
402299   157   0.0094991300   1.  1.  0.0960429008 
### 402300.MGPy8EG_A14N_C1C1_600_200_LLEi33
402300   157   0.0094991300   1.  1.  0.0960429008 
### 402301.MGPy8EG_A14N_C1C1_600_300_LLEi33
402301   157   0.0094991300   1.  1.  0.0960429008 
### 402302.MGPy8EG_A14N_C1C1_600_400_LLEi33
402302   157   0.0094991300   1.  1.  0.0960429008 
### 402303.MGPy8EG_A14N_C1C1_600_500_LLEi33
402303   157   0.0094991300   1.  1.  0.0960429008 
### 402304.MGPy8EG_A14N_C1C1_600_590_LLEi33
402304   157   0.0094991300   1.  1.  0.0960429008 
### 402305.MGPy8EG_A14N23LO_C1C1_700_10_LLEi33
402305   157   0.0044387000   1.  1.  0.1029857841 
### 402306.MGPy8EG_A14N23LO_C1C1_700_50_LLEi33
402306   157   0.0044387000   1.  1.  0.1029857841 
### 402307.MGPy8EG_A14N_C1C1_700_100_LLEi33
402307   157   0.0044387000   1.  1.  0.1029857841 
### 402308.MGPy8EG_A14N_C1C1_700_200_LLEi33
402308   157   0.0044387000   1.  1.  0.1029857841 
### 402309.MGPy8EG_A14N_C1C1_700_300_LLEi33
402309   157   0.0044387000   1.  1.  0.1029857841 
### 402310.MGPy8EG_A14N_C1C1_700_400_LLEi33
402310   157   0.0044387000   1.  1.  0.1029857841 
### 402311.MGPy8EG_A14N_C1C1_700_500_LLEi33
402311   157   0.0044387000   1.  1.  0.1029857841 
### 402312.MGPy8EG_A14N_C1C1_700_600_LLEi33
402312   157   0.0044387000   1.  1.  0.1029857841 
### 402313.MGPy8EG_A14N_C1C1_700_690_LLEi33
402313   157   0.0044387000   1.  1.  0.1029857841 
### 402314.MGPy8EG_A14N23LO_C1C1_800_10_LLEi33
402314   157   0.0022119700   1.  1.  0.1108496047 
### 402315.MGPy8EG_A14N23LO_C1C1_800_50_LLEi33
402315   157   0.0022119700   1.  1.  0.1108496047 
### 402316.MGPy8EG_A14N_C1C1_800_100_LLEi33
402316   157   0.0022119700   1.  1.  0.1108496047 
### 402317.MGPy8EG_A14N_C1C1_800_200_LLEi33
402317   157   0.0022119700   1.  1.  0.1108496047 
### 402318.MGPy8EG_A14N_C1C1_800_300_LLEi33
402318   157   0.0022119700   1.  1.  0.1108496047 
### 402319.MGPy8EG_A14N_C1C1_800_400_LLEi33
402319   157   0.0022119700   1.  1.  0.1108496047 
### 402320.MGPy8EG_A14N_C1C1_800_500_LLEi33
402320   157   0.0022119700   1.  1.  0.1108496047 
### 402321.MGPy8EG_A14N_C1C1_800_600_LLEi33
402321   157   0.0022119700   1.  1.  0.1108496047 
### 402322.MGPy8EG_A14N_C1C1_800_700_LLEi33
402322   157   0.0022119700   1.  1.  0.1108496047 
### 402323.MGPy8EG_A14N_C1C1_800_790_LLEi33
402323   157   0.0022119700   1.  1.  0.1108496047 
### 402324.MGPy8EG_A14N23LO_C1C1_900_10_LLEi33
402324   157   0.0011530100   1.  1.  0.1177977641 
### 402325.MGPy8EG_A14N23LO_C1C1_900_50_LLEi33
402325   157   0.0011530100   1.  1.  0.1177977641 
### 402326.MGPy8EG_A14N23LO_C1C1_900_100_LLEi33
402326   157   0.0011530100   1.  1.  0.1177977641 
### 402327.MGPy8EG_A14N23LO_C1C1_900_200_LLEi33
402327   157   0.0011530100   1.  1.  0.1177977641 
### 402328.MGPy8EG_A14N23LO_C1C1_900_300_LLEi33
402328   157   0.0011530100   1.  1.  0.1177977641 
### 402329.MGPy8EG_A14N23LO_C1C1_900_400_LLEi33
402329   157   0.0011530100   1.  1.  0.1177977641 
### 402330.MGPy8EG_A14N23LO_C1C1_900_500_LLEi33
402330   157   0.0011530100   1.  1.  0.1177977641 
### 402331.MGPy8EG_A14N23LO_C1C1_900_600_LLEi33
402331   157   0.0011530100   1.  1.  0.1177977641 
### 402332.MGPy8EG_A14N23LO_C1C1_900_700_LLEi33
402332   157   0.0011530100   1.  1.  0.1177977641 
### 402333.MGPy8EG_A14N23LO_C1C1_900_800_LLEi33
402333   157   0.0011530100   1.  1.  0.1177977641 
### 402334.MGPy8EG_A14N23LO_C1C1_900_890_LLEi33
402334   157   0.0011530100   1.  1.  0.1177977641 
### 402335.MGPy8EG_A14N_C1C1_1000_10_LLEi33
402335   157   0.0006218660   1.  1.  0.1239824978 
### 402336.MGPy8EG_A14N_C1C1_1000_50_LLEi33
402336   157   0.0006218660   1.  1.  0.1239824978 
### 402337.MGPy8EG_A14N_C1C1_1000_100_LLEi33
402337   157   0.0006218660   1.  1.  0.1239824978 
### 402338.MGPy8EG_A14N_C1C1_1000_200_LLEi33
402338   157   0.0006218660   1.  1.  0.1239824978 
### 402339.MGPy8EG_A14N_C1C1_1000_300_LLEi33
402339   157   0.0006218660   1.  1.  0.1239824978 
### 402340.MGPy8EG_A14N_C1C1_1000_400_LLEi33
402340   157   0.0006218660   1.  1.  0.1239824978 
### 402341.MGPy8EG_A14N_C1C1_1000_500_LLEi33
402341   157   0.0006218660   1.  1.  0.1239824978 
### 402342.MGPy8EG_A14N_C1C1_1000_600_LLEi33
402342   157   0.0006218660   1.  1.  0.1239824978 
### 402343.MGPy8EG_A14N_C1C1_1000_700_LLEi33
402343   157   0.0006218660   1.  1.  0.1239824978 
### 402344.MGPy8EG_A14N_C1C1_1000_800_LLEi33
402344   157   0.0006218660   1.  1.  0.1239824978 
### 402345.MGPy8EG_A14N_C1C1_1000_900_LLEi33
402345   157   0.0006218660   1.  1.  0.1239824978 
### 402346.MGPy8EG_A14N_C1C1_1000_990_LLEi33
402346   157   0.0006218660   1.  1.  0.1239824978 
### 403743.MGPy8EG_A14N23LO_C1C1_1600_10_LLE12k
403743   157   0.0000239083   1.  1.  0.1651535241 
### 403744.MGPy8EG_A14N23LO_C1C1_1600_50_LLE12k
403744   157   0.0000239083   1.  1.  0.1651535241 
### 403745.MGPy8EG_A14N23LO_C1C1_1600_200_LLE12k
403745   157   0.0000239083   1.  1.  0.1651535241 
### 403746.MGPy8EG_A14N23LO_C1C1_1600_400_LLE12k
403746   157   0.0000239083   1.  1.  0.1651535241 
### 403747.MGPy8EG_A14N23LO_C1C1_1600_600_LLE12k
403747   157   0.0000239083   1.  1.  0.1651535241 
### 403748.MGPy8EG_A14N23LO_C1C1_1600_800_LLE12k
403748   157   0.0000239083   1.  1.  0.1651535241 
### 403749.MGPy8EG_A14N23LO_C1C1_1600_1000_LLE12k
403749   157   0.0000239083   1.  1.  0.1651535241 
### 403750.MGPy8EG_A14N23LO_C1C1_1600_1200_LLE12k
403750   157   0.0000239083   1.  1.  0.1651535241 
### 403751.MGPy8EG_A14N23LO_C1C1_1600_1400_LLE12k
403751   157   0.0000239083   1.  1.  0.1651535241 
### 403752.MGPy8EG_A14N23LO_C1C1_1600_1590_LLE12k
403752   157   0.0000239083   1.  1.  0.1651535241 
### 403753.MGPy8EG_A14N23LO_C1C1_1700_10_LLE12k
403753   157   0.0000144992   1.  1.  0.1723412326 
### 403754.MGPy8EG_A14N23LO_C1C1_1700_50_LLE12k
403754   157   0.0000144992   1.  1.  0.1723412326 
### 403755.MGPy8EG_A14N23LO_C1C1_1700_200_LLE12k
403755   157   0.0000144992   1.  1.  0.1723412326 
### 403756.MGPy8EG_A14N23LO_C1C1_1700_400_LLE12k
403756   157   0.0000144992   1.  1.  0.1723412326 
### 403757.MGPy8EG_A14N23LO_C1C1_1700_600_LLE12k
403757   157   0.0000144992   1.  1.  0.1723412326 
### 403758.MGPy8EG_A14N23LO_C1C1_1700_800_LLE12k
403758   157   0.0000144992   1.  1.  0.1723412326 
### 403759.MGPy8EG_A14N23LO_C1C1_1700_1000_LLE12k
403759   157   0.0000144992   1.  1.  0.1723412326 
### 403760.MGPy8EG_A14N23LO_C1C1_1700_1200_LLE12k
403760   157   0.0000144992   1.  1.  0.1723412326 
### 403761.MGPy8EG_A14N23LO_C1C1_1700_1400_LLE12k
403761   157   0.0000144992   1.  1.  0.1723412326 
### 403762.MGPy8EG_A14N23LO_C1C1_1700_1600_LLE12k
403762   157   0.0000144992   1.  1.  0.1723412326 
### 403763.MGPy8EG_A14N23LO_C1C1_1700_1690_LLE12k
403763   157   0.0000144992   1.  1.  0.1723412326 
### 403764.MGPy8EG_A14N23LO_C1C1_1000_directLLE12k
403764   157   0.0006218660   1.  1.  0.1239824978 
### 403765.MGPy8EG_A14N23LO_C1C1_1100_directLLE12k
403765   157   0.0003426260   1.  1.  0.1248218174 
### 403766.MGPy8EG_A14N23LO_C1C1_1200_directLLE12k
403766   157   0.0001960440   1.  1.  0.1347325090 
### 403767.MGPy8EG_A14N23LO_C1C1_1300_directLLE12k
403767   157   0.0001156450   1.  1.  0.1621860003 
### 403768.MGPy8EG_A14N23LO_C1C1_1400_directLLE12k
403768   157   0.0000686671   1.  1.  0.1667144819 
### 403769.MGPy8EG_A14N23LO_C1C1_1500_directLLE12k
403769   157   0.0000396228   1.  1.  0.1583217239 
### 403770.MGPy8EG_A14N23LO_C1C1_1600_directLLE12k
403770   157   0.0000239083   1.  1.  0.1651535241 
### 403771.MGPy8EG_A14N23LO_C1C1_1700_directLLE12k
403771   157   0.0000144992   1.  1.  0.1723412326 
### 403772.MGPy8EG_A14N23LO_C1C1_1100_10_LLEi33
403772   157   0.0003426260   1.  1.  0.1248218174 
### 403773.MGPy8EG_A14N23LO_C1C1_1100_50_LLEi33
403773   157   0.0003426260   1.  1.  0.1248218174 
### 403774.MGPy8EG_A14N23LO_C1C1_1100_100_LLEi33
403774   157   0.0003426260   1.  1.  0.1248218174 
### 403775.MGPy8EG_A14N23LO_C1C1_1100_200_LLEi33
403775   157   0.0003426260   1.  1.  0.1248218174 
### 403776.MGPy8EG_A14N23LO_C1C1_1100_300_LLEi33
403776   157   0.0003426260   1.  1.  0.1248218174 
### 403777.MGPy8EG_A14N23LO_C1C1_1100_400_LLEi33
403777   157   0.0003426260   1.  1.  0.1248218174 
### 403778.MGPy8EG_A14N23LO_C1C1_1100_500_LLEi33
403778   157   0.0003426260   1.  1.  0.1248218174 
### 403779.MGPy8EG_A14N23LO_C1C1_1100_600_LLEi33
403779   157   0.0003426260   1.  1.  0.1248218174 
### 403780.MGPy8EG_A14N23LO_C1C1_1100_700_LLEi33
403780   157   0.0003426260   1.  1.  0.1248218174 
### 403781.MGPy8EG_A14N23LO_C1C1_1100_800_LLEi33
403781   157   0.0003426260   1.  1.  0.1248218174 
### 403782.MGPy8EG_A14N23LO_C1C1_1100_900_LLEi33
403782   157   0.0003426260   1.  1.  0.1248218174 
### 403783.MGPy8EG_A14N23LO_C1C1_1100_1000_LLEi33
403783   157   0.0003426260   1.  1.  0.1248218174 
### 403784.MGPy8EG_A14N23LO_C1C1_1100_1090_LLEi33
403784   157   0.0003426260   1.  1.  0.1248218174 
### 403926.MGPy8EG_A14N23LO_C1C1_600_470_LLEi33
403926   157   0.0094991300   1.  1.  0.0960429008 
### 403927.MGPy8EG_A14N23LO_C1C1_800_670_LLEi33
403927   157   0.0022119700   1.  1.  0.1108496047 
### 403928.MGPy8EG_A14N23LO_C1C1_900_770_LLEi33
403928   157   0.0011530100   1.  1.  0.1177977641 
### 403929.MGPy8EG_A14N23LO_C1C1_700_570_LLEi33
403929   157   0.0044387000   1.  1.  0.1029857841 
### 403930.MGPy8EG_A14N23LO_C1C1_1000_870_LLEi33
403930   157   0.0006218660   1.  1.  0.1239824978 
### 403975.MGPy8EG_A14N23LO_C1C1_1000_870_LLE12k
403975   157   0.0006218660   1.  1.  0.1239824978 
### 403976.MGPy8EG_A14N23LO_C1C1_1200_1070_LLE12k
403976   157   0.0001960440   1.  1.  0.1347325090 
### 403977.MGPy8EG_A14N23LO_C1C1_1500_1370_LLE12k
403977   157   0.0000396228   1.  1.  0.1583217239 
