### 403785.MGPy8EG_A14N23LO_C1N2z_1000_10_LLE12k
403785   127   0.0003290020   1.  1.  0.1585786713 
### 403786.MGPy8EG_A14N23LO_C1N2z_1000_50_LLE12k
403786   127   0.0003290020   1.  1.  0.1585786713 
### 403787.MGPy8EG_A14N23LO_C1N2z_1000_200_LLE12k
403787   127   0.0003290020   1.  1.  0.1585786713 
### 403788.MGPy8EG_A14N23LO_C1N2z_1000_600_LLE12k
403788   127   0.0003290020   1.  1.  0.1585786713 
### 403789.MGPy8EG_A14N23LO_C1N2z_1000_990_LLE12k
403789   127   0.0003290020   1.  1.  0.1585786713 
### 403790.MGPy8EG_A14N23LO_C1N2z_1200_10_LLE12k
403790   127   0.0001006870   1.  1.  0.1673383853 
### 403791.MGPy8EG_A14N23LO_C1N2z_1200_50_LLE12k
403791   127   0.0001006870   1.  1.  0.1673383853 
### 403792.MGPy8EG_A14N23LO_C1N2z_1200_200_LLE12k
403792   127   0.0001006870   1.  1.  0.1673383853 
### 403793.MGPy8EG_A14N23LO_C1N2z_1200_600_LLE12k
403793   127   0.0001006870   1.  1.  0.1673383853 
### 403794.MGPy8EG_A14N23LO_C1N2z_1200_1190_LLE12k
403794   127   0.0001006870   1.  1.  0.1673383853 
### 403795.MGPy8EG_A14N23LO_C1N2z_1500_10_LLE12k
403795   127   0.0000200469   1.  1.  0.2329861475 
### 403796.MGPy8EG_A14N23LO_C1N2z_1500_50_LLE12k
403796   127   0.0000200469   1.  1.  0.2329861475 
### 403797.MGPy8EG_A14N23LO_C1N2z_1500_200_LLE12k
403797   127   0.0000200469   1.  1.  0.2329861475 
### 403798.MGPy8EG_A14N23LO_C1N2z_1500_600_LLE12k
403798   127   0.0000200469   1.  1.  0.2329861475 
### 403799.MGPy8EG_A14N23LO_C1N2z_1500_1490_LLE12k
403799   127   0.0000200469   1.  1.  0.2329861475 
### 403800.MGPy8EG_A14N23LO_C1N2z_1600_10_LLE12k
403800   127   0.0000120888   1.  1.  0.2380054265 
### 403801.MGPy8EG_A14N23LO_C1N2z_1600_50_LLE12k
403801   127   0.0000120888   1.  1.  0.2380054265 
### 403802.MGPy8EG_A14N23LO_C1N2z_1600_200_LLE12k
403802   127   0.0000120888   1.  1.  0.2380054265 
### 403803.MGPy8EG_A14N23LO_C1N2z_1600_800_LLE12k
403803   127   0.0000120888   1.  1.  0.2380054265 
### 403804.MGPy8EG_A14N23LO_C1N2z_1600_1590_LLE12k
403804   127   0.0000120888   1.  1.  0.2380054265 
### 403805.MGPy8EG_A14N23LO_C1N2z_1700_10_LLE12k
403805   127   0.0000071886   1.  1.  0.2604428654 
### 403806.MGPy8EG_A14N23LO_C1N2z_1700_50_LLE12k
403806   127   0.0000071886   1.  1.  0.2604428654 
### 403807.MGPy8EG_A14N23LO_C1N2z_1700_200_LLE12k
403807   127   0.0000071886   1.  1.  0.2604428654 
### 403808.MGPy8EG_A14N23LO_C1N2z_1700_1000_LLE12k
403808   127   0.0000071886   1.  1.  0.2604428654 
### 403809.MGPy8EG_A14N23LO_C1N2z_1700_1690_LLE12k
403809   127   0.0000071886   1.  1.  0.2604428654 
### 403810.MGPy8EG_A14N23LO_C1N2z_600_100_LLEi33
403810   127   0.0055628900   1.  1.  0.1196261296 
### 403811.MGPy8EG_A14N23LO_C1N2z_600_300_LLEi33
403811   127   0.0055628900   1.  1.  0.1196261296 
### 403812.MGPy8EG_A14N23LO_C1N2z_600_590_LLEi33
403812   127   0.0055628900   1.  1.  0.1196261296 
### 403813.MGPy8EG_A14N23LO_C1N2z_800_100_LLEi33
403813   127   0.0012175000   1.  1.  0.1438784394 
### 403814.MGPy8EG_A14N23LO_C1N2z_800_400_LLEi33
403814   127   0.0012175000   1.  1.  0.1438784394 
### 403815.MGPy8EG_A14N23LO_C1N2z_800_790_LLEi33
403815   127   0.0012175000   1.  1.  0.1438784394 
### 403816.MGPy8EG_A14N23LO_C1N2z_900_100_LLEi33
403816   127   0.0006233790   1.  1.  0.1563785434 
### 403817.MGPy8EG_A14N23LO_C1N2z_900_400_LLEi33
403817   127   0.0006233790   1.  1.  0.1563785434 
### 403818.MGPy8EG_A14N23LO_C1N2z_900_890_LLEi33
403818   127   0.0006233790   1.  1.  0.1563785434 
### 403819.MGPy8EG_A14N23LO_C1N2z_1000_100_LLEi33
403819   127   0.0003290020   1.  1.  0.1585786713 
### 403820.MGPy8EG_A14N23LO_C1N2z_1000_400_LLEi33
403820   127   0.0003290020   1.  1.  0.1585786713 
### 403821.MGPy8EG_A14N23LO_C1N2z_1000_900_LLEi33
403821   127   0.0003290020   1.  1.  0.1585786713 
### 403822.MGPy8EG_A14N23LO_C1N2z_1000_990_LLEi33
403822   127   0.0003290020   1.  1.  0.1585786713 
### 403823.MGPy8EG_A14N23LO_C1N2z_1100_100_LLEi33
403823   127   0.0001809220   1.  1.  0.1994356684 
### 403824.MGPy8EG_A14N23LO_C1N2z_1100_400_LLEi33
403824   127   0.0001809220   1.  1.  0.1994356684 
### 403825.MGPy8EG_A14N23LO_C1N2z_1100_900_LLEi33
403825   127   0.0001809220   1.  1.  0.1994356684 
### 403826.MGPy8EG_A14N23LO_C1N2z_1100_1090_LLEi33
403826   127   0.0001809220   1.  1.  0.1994356684 
### 403827.MGPy8EG_A14N23LO_C1N2h_1000_10_LLE12k
403827   127   0.0003290020   1.  1.  0.1585786713 
### 403828.MGPy8EG_A14N23LO_C1N2h_1000_50_LLE12k
403828   127   0.0003290020   1.  1.  0.1585786713 
### 403829.MGPy8EG_A14N23LO_C1N2h_1000_200_LLE12k
403829   127   0.0003290020   1.  1.  0.1585786713 
### 403830.MGPy8EG_A14N23LO_C1N2h_1000_600_LLE12k
403830   127   0.0003290020   1.  1.  0.1585786713 
### 403831.MGPy8EG_A14N23LO_C1N2h_1000_870_LLE12k
403831   127   0.0003290020   1.  1.  0.1585786713 
### 403832.MGPy8EG_A14N23LO_C1N2h_1200_10_LLE12k
403832   127   0.0001006870   1.  1.  0.1673383853 
### 403833.MGPy8EG_A14N23LO_C1N2h_1200_50_LLE12k
403833   127   0.0001006870   1.  1.  0.1673383853 
### 403834.MGPy8EG_A14N23LO_C1N2h_1200_200_LLE12k
403834   127   0.0001006870   1.  1.  0.1673383853 
### 403835.MGPy8EG_A14N23LO_C1N2h_1200_600_LLE12k
403835   127   0.0001006870   1.  1.  0.1673383853 
### 403836.MGPy8EG_A14N23LO_C1N2h_1200_1070_LLE12k
403836   127   0.0001006870   1.  1.  0.1673383853 
### 403837.MGPy8EG_A14N23LO_C1N2h_1500_10_LLE12k
403837   127   0.0000200469   1.  1.  0.2329861475 
### 403838.MGPy8EG_A14N23LO_C1N2h_1500_50_LLE12k
403838   127   0.0000200469   1.  1.  0.2329861475 
### 403839.MGPy8EG_A14N23LO_C1N2h_1500_200_LLE12k
403839   127   0.0000200469   1.  1.  0.2329861475 
### 403840.MGPy8EG_A14N23LO_C1N2h_1500_600_LLE12k
403840   127   0.0000200469   1.  1.  0.2329861475 
### 403841.MGPy8EG_A14N23LO_C1N2h_1500_1370_LLE12k
403841   127   0.0000200469   1.  1.  0.2329861475 
### 403842.MGPy8EG_A14N23LO_C1N2h_1600_10_LLE12k
403842   127   0.0000120888   1.  1.  0.2380054265 
### 403843.MGPy8EG_A14N23LO_C1N2h_1600_50_LLE12k
403843   127   0.0000120888   1.  1.  0.2380054265 
### 403844.MGPy8EG_A14N23LO_C1N2h_1600_200_LLE12k
403844   127   0.0000120888   1.  1.  0.2380054265 
### 403845.MGPy8EG_A14N23LO_C1N2h_1600_800_LLE12k
403845   127   0.0000120888   1.  1.  0.2380054265 
### 403846.MGPy8EG_A14N23LO_C1N2h_1600_1470_LLE12k
403846   127   0.0000120888   1.  1.  0.2380054265 
### 403847.MGPy8EG_A14N23LO_C1N2h_1700_10_LLE12k
403847   127   0.0000071886   1.  1.  0.2604428654 
### 403848.MGPy8EG_A14N23LO_C1N2h_1700_50_LLE12k
403848   127   0.0000071886   1.  1.  0.2604428654 
### 403849.MGPy8EG_A14N23LO_C1N2h_1700_200_LLE12k
403849   127   0.0000071886   1.  1.  0.2604428654 
### 403850.MGPy8EG_A14N23LO_C1N2h_1700_800_LLE12k
403850   127   0.0000071886   1.  1.  0.2604428654 
### 403851.MGPy8EG_A14N23LO_C1N2h_1700_1570_LLE12k
403851   127   0.0000071886   1.  1.  0.2604428654 
### 403852.MGPy8EG_A14N23LO_C1N2h_600_100_LLEi33
403852   127   0.0055628900   1.  1.  0.1196261296 
### 403853.MGPy8EG_A14N23LO_C1N2h_600_300_LLEi33
403853   127   0.0055628900   1.  1.  0.1196261296 
### 403854.MGPy8EG_A14N23LO_C1N2h_600_470_LLEi33
403854   127   0.0055628900   1.  1.  0.1196261296 
### 403855.MGPy8EG_A14N23LO_C1N2h_800_100_LLEi33
403855   127   0.0012175000   1.  1.  0.1438784394 
### 403856.MGPy8EG_A14N23LO_C1N2h_800_400_LLEi33
403856   127   0.0012175000   1.  1.  0.1438784394 
### 403857.MGPy8EG_A14N23LO_C1N2h_800_670_LLEi33
403857   127   0.0012175000   1.  1.  0.1438784394 
### 403858.MGPy8EG_A14N23LO_C1N2h_900_100_LLEi33
403858   127   0.0006233790   1.  1.  0.1563785434 
### 403859.MGPy8EG_A14N23LO_C1N2h_900_400_LLEi33
403859   127   0.0006233790   1.  1.  0.1563785434 
### 403860.MGPy8EG_A14N23LO_C1N2h_900_770_LLEi33
403860   127   0.0006233790   1.  1.  0.1563785434 
### 403861.MGPy8EG_A14N23LO_C1N2h_1000_100_LLEi33
403861   127   0.0003290020   1.  1.  0.1585786713 
### 403862.MGPy8EG_A14N23LO_C1N2h_1000_400_LLEi33
403862   127   0.0003290020   1.  1.  0.1585786713 
### 403863.MGPy8EG_A14N23LO_C1N2h_1000_870_LLEi33
403863   127   0.0003290020   1.  1.  0.1585786713 
### 403864.MGPy8EG_A14N23LO_C1N2h_1100_100_LLEi33
403864   127   0.0001809220   1.  1.  0.1994356684 
### 403865.MGPy8EG_A14N23LO_C1N2h_1100_400_LLEi33
403865   127   0.0001809220   1.  1.  0.1994356684 
### 403866.MGPy8EG_A14N23LO_C1N2h_1100_800_LLEi33
403866   127   0.0001809220   1.  1.  0.1994356684 
### 403867.MGPy8EG_A14N23LO_C1N2h_1100_970_LLEi33
403867   127   0.0001809220   1.  1.  0.1994356684 
### 403868.MGPy8EG_A14N23LO_C1N2_1000_directLLE12k
403868   127   0.0003290020   1.  1.  0.1585786713 
### 403869.MGPy8EG_A14N23LO_C1N2_1200_directLLE12k
403869   127   0.0001006870   1.  1.  0.1673383853 
### 403870.MGPy8EG_A14N23LO_C1N2_1500_directLLE12k
403870   127   0.0000200469   1.  1.  0.2329861475 
### 403871.MGPy8EG_A14N23LO_C1N2_1600_directLLE12k
403871   127   0.0000120888   1.  1.  0.2380054265 
### 403872.MGPy8EG_A14N23LO_C1N2_1700_directLLE12k
403872   127   0.0000071886   1.  1.  0.2604428654 
### 403931.MGPy8EG_A14N23LO_C1N2h_600_10_LLEi33
403931   127   0.0055628900   1.  1.  0.1196261296 
### 403932.MGPy8EG_A14N23LO_C1N2h_600_50_LLEi33
403932   127   0.0055628900   1.  1.  0.1196261296 
### 403933.MGPy8EG_A14N23LO_C1N2h_800_10_LLEi33
403933   127   0.0012175000   1.  1.  0.1438784394 
### 403934.MGPy8EG_A14N23LO_C1N2h_800_50_LLEi33
403934   127   0.0012175000   1.  1.  0.1438784394 
### 403935.MGPy8EG_A14N23LO_C1N2h_800_200_LLEi33
403935   127   0.0012175000   1.  1.  0.1438784394 
### 403936.MGPy8EG_A14N23LO_C1N2h_800_300_LLEi33
403936   127   0.0012175000   1.  1.  0.1438784394 
### 403937.MGPy8EG_A14N23LO_C1N2h_800_500_LLEi33
403937   127   0.0012175000   1.  1.  0.1438784394 
### 403938.MGPy8EG_A14N23LO_C1N2h_800_600_LLEi33
403938   127   0.0012175000   1.  1.  0.1438784394 
### 403939.MGPy8EG_A14N23LO_C1N2h_900_10_LLEi33
403939   127   0.0006233790   1.  1.  0.1563785434 
### 403940.MGPy8EG_A14N23LO_C1N2h_900_50_LLEi33
403940   127   0.0006233790   1.  1.  0.1563785434 
### 403941.MGPy8EG_A14N23LO_C1N2h_900_200_LLEi33
403941   127   0.0006233790   1.  1.  0.1563785434 
### 403942.MGPy8EG_A14N23LO_C1N2h_900_300_LLEi33
403942   127   0.0006233790   1.  1.  0.1563785434 
### 403943.MGPy8EG_A14N23LO_C1N2h_900_500_LLEi33
403943   127   0.0006233790   1.  1.  0.1563785434 
### 403944.MGPy8EG_A14N23LO_C1N2h_900_600_LLEi33
403944   127   0.0006233790   1.  1.  0.1563785434 
### 403945.MGPy8EG_A14N23LO_C1N2h_900_700_LLEi33
403945   127   0.0006233790   1.  1.  0.1563785434 
### 403946.MGPy8EG_A14N23LO_C1N2h_700_10_LLEi33
403946   127   0.0025208000   1.  1.  0.1299698508 
### 403947.MGPy8EG_A14N23LO_C1N2h_700_50_LLEi33
403947   127   0.0025208000   1.  1.  0.1299698508 
### 403948.MGPy8EG_A14N23LO_C1N2h_700_100_LLEi33
403948   127   0.0025208000   1.  1.  0.1299698508 
### 403949.MGPy8EG_A14N23LO_C1N2h_700_200_LLEi33
403949   127   0.0025208000   1.  1.  0.1299698508 
### 403950.MGPy8EG_A14N23LO_C1N2h_700_400_LLEi33
403950   127   0.0025208000   1.  1.  0.1299698508 
### 403951.MGPy8EG_A14N23LO_C1N2h_700_570_LLEi33
403951   127   0.0025208000   1.  1.  0.1299698508 
### 403952.MGPy8EG_A14N23LO_C1N2h_1000_10_LLEi33
403952   127   0.0003290020   1.  1.  0.1585786713 
### 403953.MGPy8EG_A14N23LO_C1N2h_1000_50_LLEi33
403953   127   0.0003290020   1.  1.  0.1585786713 
### 403954.MGPy8EG_A14N23LO_C1N2z_600_10_LLEi33
403954   127   0.0055628900   1.  1.  0.1196261296 
### 403955.MGPy8EG_A14N23LO_C1N2z_600_50_LLEi33
403955   127   0.0055628900   1.  1.  0.1196261296 
### 403956.MGPy8EG_A14N23LO_C1N2z_800_10_LLEi33
403956   127   0.0012175000   1.  1.  0.1438784394 
### 403957.MGPy8EG_A14N23LO_C1N2z_800_50_LLEi33
403957   127   0.0012175000   1.  1.  0.1438784394 
### 403958.MGPy8EG_A14N23LO_C1N2z_800_200_LLEi33
403958   127   0.0012175000   1.  1.  0.1438784394 
### 403959.MGPy8EG_A14N23LO_C1N2z_800_300_LLEi33
403959   127   0.0012175000   1.  1.  0.1438784394 
### 403960.MGPy8EG_A14N23LO_C1N2z_800_500_LLEi33
403960   127   0.0012175000   1.  1.  0.1438784394 
### 403961.MGPy8EG_A14N23LO_C1N2z_800_600_LLEi33
403961   127   0.0012175000   1.  1.  0.1438784394 
### 403962.MGPy8EG_A14N23LO_C1N2z_800_700_LLEi33
403962   127   0.0012175000   1.  1.  0.1438784394 
### 403963.MGPy8EG_A14N23LO_C1N2z_900_10_LLEi33
403963   127   0.0006233790   1.  1.  0.1563785434 
### 403964.MGPy8EG_A14N23LO_C1N2z_900_50_LLEi33
403964   127   0.0006233790   1.  1.  0.1563785434 
### 403965.MGPy8EG_A14N23LO_C1N2z_900_200_LLEi33
403965   127   0.0006233790   1.  1.  0.1563785434 
### 403966.MGPy8EG_A14N23LO_C1N2z_900_300_LLEi33
403966   127   0.0006233790   1.  1.  0.1563785434 
### 403967.MGPy8EG_A14N23LO_C1N2z_900_500_LLEi33
403967   127   0.0006233790   1.  1.  0.1563785434 
### 403968.MGPy8EG_A14N23LO_C1N2z_900_600_LLEi33
403968   127   0.0006233790   1.  1.  0.1563785434 
### 403969.MGPy8EG_A14N23LO_C1N2z_700_10_LLEi33
403969   127   0.0025208000   1.  1.  0.1299698508 
### 403970.MGPy8EG_A14N23LO_C1N2z_700_50_LLEi33
403970   127   0.0025208000   1.  1.  0.1299698508 
### 403971.MGPy8EG_A14N23LO_C1N2z_700_100_LLEi33
403971   127   0.0025208000   1.  1.  0.1299698508 
### 403972.MGPy8EG_A14N23LO_C1N2z_700_200_LLEi33
403972   127   0.0025208000   1.  1.  0.1299698508 
### 403973.MGPy8EG_A14N23LO_C1N2z_1000_10_LLEi33
403973   127   0.0003290020   1.  1.  0.1585786713 
### 403974.MGPy8EG_A14N23LO_C1N2z_1000_50_LLEi33
403974   127   0.0003290020   1.  1.  0.1585786713 
